\relax 
\@writefile{toc}{\contentsline {section}{\numberline {1}概要}{1}}
\@writefile{toc}{\contentsline {section}{\numberline {2}実部および虚部の微分}{1}}
\@writefile{toc}{\contentsline {subsection}{\numberline {2.1}一変数}{1}}
\@writefile{toc}{\contentsline {subsection}{\numberline {2.2}多変数}{2}}
\@writefile{toc}{\contentsline {section}{\numberline {3}full-matrix least square}{2}}
\@writefile{toc}{\contentsline {subsection}{\numberline {3.1}評価関数}{2}}
\bibstyle{jplain}
\bibdata{library,books,paper}
\@writefile{toc}{\contentsline {subsection}{\numberline {3.2}一階微分}{3}}
\@writefile{toc}{\contentsline {subsection}{\numberline {3.3}二階微分}{3}}
\@writefile{toc}{\contentsline {subsection}{\numberline {3.4}微分基底}{3}}
\@writefile{toc}{\contentsline {section}{\numberline {4}初期値}{3}}
\@writefile{toc}{\contentsline {section}{\numberline {5}GTOの微分}{4}}
\@writefile{toc}{\contentsline {subsection}{\numberline {5.1}一階微分}{4}}
\@writefile{toc}{\contentsline {subsection}{\numberline {5.2}二階微分}{5}}
