\relax 
\@writefile{toc}{\contentsline {section}{\numberline {1}線形探索}{1}}
\@writefile{toc}{\contentsline {subsection}{\numberline {1.1}序}{1}}
\@writefile{toc}{\contentsline {subsection}{\numberline {1.2}一次元}{1}}
\bibstyle{jplain}
\bibdata{library,books,paper}
